GetDP_function_name, rhs, mass, stiffness, triple, fct_only
CFUN_kKapton_T, 0, 1, 1, 0, 0
CFUN_kG10_T, 0, 1, 1, 0, 0
CFUN_kSteel_T, 0, 1, 1, 0, 0
CFUN_CvKapton_T, 0, 1, 0, 0, 0
CFUN_CvG10_T, 0, 1, 0, 0, 0
CFUN_CvSteel_T, 0, 1, 0, 0, 0
CFUN_CvCu_T, 0, 1, 0, 0, 0
CFUN_rhoIn_T, 1, 1, 1, 1, 1
CFUN_kIn_T, 0, 1, 1, 0, 0
CFUN_CvIn_T, 0, 1, 0, 0, 0
CFUN_kStycast_T, 0, 1, 1, 0, 0